%YAML 1.1
%TAG !u! tag:unity3d.com,2011:
--- !u!95 &1745379295
Animator:
  serializedVersion: 3
  m_ObjectHideFlags: 0
  m_CorrespondingSourceObject: {fileID: 0}
  m_PrefabInstance: {fileID: 0}
  m_PrefabAsset: {fileID: 0}
  m_GameObject: {fileID: 4701484579040092048}
  m_Enabled: 1
  m_Avatar: {fileID: 0}
  m_Controller: {fileID: 9100000, guid: f20665ce8f6de5548b7f054e0306944f, type: 2}
  m_CullingMode: 0
  m_UpdateMode: 0
  m_ApplyRootMotion: 0
  m_LinearVelocityBlending: 0
  m_WarningMessage: 
  m_HasTransformHierarchy: 1
  m_AllowConstantClipSamplingOptimization: 1
  m_KeepAnimatorControllerStateOnDisable: 0
--- !u!1001 &4701484579040057648
PrefabInstance:
  m_ObjectHideFlags: 0
  serializedVersion: 2
  m_Modification:
    m_TransformParent: {fileID: 0}
    m_Modifications:
    - target: {fileID: 100000, guid: ab62cf327dcf20c40b1ae6aaa36ebfcc, type: 3}
      propertyPath: m_Name
      value: Diamond-blue
      objectReference: {fileID: 0}
    - target: {fileID: 400000, guid: ab62cf327dcf20c40b1ae6aaa36ebfcc, type: 3}
      propertyPath: m_LocalPosition.x
      value: 349.97366
      objectReference: {fileID: 0}
    - target: {fileID: 400000, guid: ab62cf327dcf20c40b1ae6aaa36ebfcc, type: 3}
      propertyPath: m_LocalPosition.y
      value: 2797.5
      objectReference: {fileID: 0}
    - target: {fileID: 400000, guid: ab62cf327dcf20c40b1ae6aaa36ebfcc, type: 3}
      propertyPath: m_LocalPosition.z
      value: -7340.9
      objectReference: {fileID: 0}
    - target: {fileID: 400000, guid: ab62cf327dcf20c40b1ae6aaa36ebfcc, type: 3}
      propertyPath: m_LocalRotation.x
      value: 0.000000021855694
      objectReference: {fileID: 0}
    - target: {fileID: 400000, guid: ab62cf327dcf20c40b1ae6aaa36ebfcc, type: 3}
      propertyPath: m_LocalRotation.y
      value: -0
      objectReference: {fileID: 0}
    - target: {fileID: 400000, guid: ab62cf327dcf20c40b1ae6aaa36ebfcc, type: 3}
      propertyPath: m_LocalRotation.z
      value: -0
      objectReference: {fileID: 0}
    - target: {fileID: 400000, guid: ab62cf327dcf20c40b1ae6aaa36ebfcc, type: 3}
      propertyPath: m_LocalRotation.w
      value: 1
      objectReference: {fileID: 0}
    - target: {fileID: 400000, guid: ab62cf327dcf20c40b1ae6aaa36ebfcc, type: 3}
      propertyPath: m_RootOrder
      value: 0
      objectReference: {fileID: 0}
    - target: {fileID: 400000, guid: ab62cf327dcf20c40b1ae6aaa36ebfcc, type: 3}
      propertyPath: m_LocalEulerAnglesHint.x
      value: 0
      objectReference: {fileID: 0}
    - target: {fileID: 400000, guid: ab62cf327dcf20c40b1ae6aaa36ebfcc, type: 3}
      propertyPath: m_LocalEulerAnglesHint.y
      value: 0
      objectReference: {fileID: 0}
    - target: {fileID: 400000, guid: ab62cf327dcf20c40b1ae6aaa36ebfcc, type: 3}
      propertyPath: m_LocalEulerAnglesHint.z
      value: 0
      objectReference: {fileID: 0}
    - target: {fileID: 400000, guid: ab62cf327dcf20c40b1ae6aaa36ebfcc, type: 3}
      propertyPath: m_LocalScale.x
      value: 719.441
      objectReference: {fileID: 0}
    - target: {fileID: 400000, guid: ab62cf327dcf20c40b1ae6aaa36ebfcc, type: 3}
      propertyPath: m_LocalScale.y
      value: 719.441
      objectReference: {fileID: 0}
    - target: {fileID: 400000, guid: ab62cf327dcf20c40b1ae6aaa36ebfcc, type: 3}
      propertyPath: m_LocalScale.z
      value: 719.441
      objectReference: {fileID: 0}
    - target: {fileID: 2300000, guid: ab62cf327dcf20c40b1ae6aaa36ebfcc, type: 3}
      propertyPath: m_Materials.Array.data[0]
      value: 
      objectReference: {fileID: 2100000, guid: bad1c505eb1658343a5a35fcbd2f3af5, type: 2}
    m_RemovedComponents: []
  m_SourcePrefab: {fileID: 100100000, guid: ab62cf327dcf20c40b1ae6aaa36ebfcc, type: 3}
--- !u!1 &4701484579040092048 stripped
GameObject:
  m_CorrespondingSourceObject: {fileID: 100000, guid: ab62cf327dcf20c40b1ae6aaa36ebfcc,
    type: 3}
  m_PrefabInstance: {fileID: 4701484579040057648}
  m_PrefabAsset: {fileID: 0}
