%YAML 1.1
%TAG !u! tag:unity3d.com,2011:
--- !u!21 &2100000
Material:
  serializedVersion: 6
  m_ObjectHideFlags: 0
  m_CorrespondingSourceObject: {fileID: 0}
  m_PrefabInternal: {fileID: 0}
  m_Name: WallBarrier1Mat 1
  m_Shader: {fileID: 4800000, guid: a359627cf7530ec4ca49a2ef5a116e8b, type: 3}
  m_ShaderKeywords: _INVERTPATTERN_ON
  m_LightmapFlags: 4
  m_EnableInstancingVariants: 0
  m_DoubleSidedGI: 0
  m_CustomRenderQueue: -1
  stringTagMap: {}
  disabledShaderPasses: []
  m_SavedProperties:
    serializedVersion: 3
    m_TexEnvs:
    - <noninit>:
        m_Texture: {fileID: 0}
        m_Scale: {x: 1, y: 1}
        m_Offset: {x: 0, y: 0}
    - _BumpMap:
        m_Texture: {fileID: 2800000, guid: 2260d5317d4d0d64a9db7d31c147cae7, type: 3}
        m_Scale: {x: 1, y: 1}
        m_Offset: {x: 0, y: 0}
    - _DissolveTex:
        m_Texture: {fileID: 2800000, guid: 5ea7b75e8c8121e4fa5665d89fc8a537, type: 3}
        m_Scale: {x: 1, y: 1}
        m_Offset: {x: 0, y: 0}
    - _MainTex:
        m_Texture: {fileID: 2800000, guid: 496e9cd2bf7efc346955206a317ca6f1, type: 3}
        m_Scale: {x: 1, y: 1}
        m_Offset: {x: 0, y: 0}
    m_Floats:
    - <noninit>: 0
    - _Dissolve: 0
    - _DissolveRimWidth: 0
    - _DistortAmount: 11.4
    - _Fade: 0.104
    - _HeightFactor: 0
    - _IntersectPower: 0
    - _InvertHeightCut: 0
    - _InvertPattern: 0
    - _PatternSpeedX: 0
    - _PatternSpeedY: 0
    - _PatternStrength: 4.74
    - _RimPower: 12
    - _RimSpread: 0.00001
    - _SpeedX: 0
    - _SpeedY: -0.4
    m_Colors:
    - <noninit>: {r: 7.313806e-37, g: 1.0895822e-31, b: 2.0533712e-33, a: 2.6898555e-32}
    - _DissolveRimColor: {r: 1, g: 0, b: 0.79446316, a: 1}
    - _RimColor: {r: 1, g: 0, b: 0.79383564, a: 0.4745098}
